InternalHandle,FilePath
#CellLatLongTable,/home/philju/Data/Sea Around Us/Spring_2017/Lat_Lon.txt
#CatchData,/home/philju/Data/Sea Around Us/Spring_2017/CatchData_1950-2010.csv
CellLatLongTable,/mnt/Backup/Data/Sea Around Us/Spring_2017/Lat_Lon.txt
CatchData,/mnt/Backup/Data/Sea Around Us/Spring_2017/CatchData_1950-2010.csv
