DEFINITION_Heterotroph/Autotroph,DEFINITION_Nutrition source,DEFINITION_Diet,DEFINITION_Realm,DEFINITION_Mobility,DEFINITION_Reproductive strategy,DEFINITION_Endo/Ectotherm,PROPERTY_Herbivory assimilation,PROPERTY_Carnivory assimilation,PROPERTY_Proportion suitable time active,PROPERTY_Minimum mass,PROPERTY_Maximum mass,PROPERTY_Initial number of GridCellCohorts,NOTES_group description
Heterotroph,Herbivore,Planktivore,Marine,Planktonic,iteroparity,Ectotherm,0.7,0,0.5,1E-05,0.1,10,Obligate zooplankton
Heterotroph,Carnivore,All,Marine,Mobile,iteroparity,Ectotherm,0,0.8,0.5,0.0001,10000,10,Small fish
Heterotroph,Carnivore,All,Marine,Mobile,iteroparity,Ectotherm,0,0.8,0.5,0.0001,100000,10,Medium fish
Heterotroph,Carnivore,All,Marine,Mobile,iteroparity,Ectotherm,0,0.8,0.5,0.0001,2000000,10,Large fish
Heterotroph,Carnivore,All,Marine,Mobile,iteroparity,Ectotherm,0,0.8,0.5,10,10000000,10,Small to medium sharks
Heterotroph,Carnivore,All,Marine,Mobile,iteroparity,Ectotherm,0,0.8,0.5,100,50000000,10,Large sharks
Heterotroph,Omnivore,All,Marine,Mobile,iteroparity,Ectotherm,0.6,0.64,0.5,0.0001,10000,10,Crustaceans
Heterotroph,Carnivore,All,Marine,Mobile,iteroparity,Ectotherm,0,0.8,0.5,0.0001,10000,10,Jellyfish and cephalopods
Heterotroph,Carnivore,All,Marine,Mobile,iteroparity,Endotherm,0,0.8,0.5,100,10000000,10,Small endotherms
Heterotroph,Carnivore,All,Marine,Mobile,iteroparity,Endotherm,0,0.8,0.5,100,50000000,10,Large endotherms
Heterotroph,Omnivore,AllSpecial,Marine,Mobile,iteroparity,Endotherm,0.6,0.64,0.5,10000,150000000,10,Baleen whales
