DatumName,DatumType,TimeUnit,DataUnit
CohortFrequency,basic,month,frequency
CohortAbundance,basic,month,frequency
CohortsProduced,basic,month,frequency
CohortsExtinct,basic,month,frequency
CohortsCombined,basic,month,frequency
CohortsDispersed,basic,month,frequency
DispersalTime,basic,month,time steps
InCellTime,basic,month,time steps
MeanCohortBiomass,basic,month,kg
MeanTrophicLevel,basic,month,trophic level
OrganicMatterPool,basic,month,kg
RespiratoryCO2Pool,basic,month,kg
TotalCohortBiomass,basic,month,kg
TotalBiomass,basic,month,kg
TotalLivingBiomass,basic,month,kg
TotalStockBiomass,basic,month,kg
################################################################################
AutotrophBiomassDensities,grid,month,kg/km^2
BiomassDensities,grid,month,kg/km^2
CarnivoreBiomassDensities,grid,month,kg/km^2
CarnivoreAbundanceDensities,grid,month,frequency/km^2
CatchAppliedGrid,grid,none,kg
CatchMissedGrid,grid,none,kg
CatchTotalGrid,grid,none,kg
CohortAbundanceDensities,grid,month,frequency/km^2
CohortFrequencies,grid,month,frequency
DeciduousBiomassDensities,grid,month,kg/km^2
EctothermAbundanceDensities,grid,month,frequency/km^2
EctothermBiomassDensities,grid,month,kg/km^2
EndothermAbundanceDensities,grid,month,frequency/km^2
EndothermBiomassDensities,grid,month,kg/km^2
EvergreenBiomassDensities,grid,month,kg/km^2
HerbivoreBiomassDensities,grid,month,kg/km^2
HerbivoreAbundanceDensities,grid,month,frequency/km^2
HeterotrophBiomassDensities,grid,month,kg/km^2
IteroparityAbundanceDensities,grid,month,frequency/km^2
IteroparityBiomassDensities,grid,month,kg/km^2
MeanGridTrophicLevel,grid,month,trophic level
OmnivoreBiomassDensities,grid,month,kg/km^2
OmnivoreAbundanceDensities,grid,month,frequency/km^2
OrganicMatter,grid,none,kg/km^2
PhytoplanktonBiomassDensities,grid,month,kg/km^2
RespiratoryCO2,grid,none,kg/km^2
SemelparityBiomassDensities,grid,month,kg/km^2
SemelparityAbundanceDensities,grid,month,frequency/km^2
################################################################################
CatchAppliedGroup,group,year,kg
CatchMissedGroup,group,year,kg
CatchTotalGroup,group,year,kg
GroupCohortFrequency,group,month,frequency
MeanGroupCohortMass,group,month,log_{10} kg
MeanGroupTrophicLevel,group,month,trophic level
TotalGroupCohortAbundance,group,month,log_{10} frequency
TotalGroupCohortMass,group,year,kg
